…
``` r
library(tidyverse)
library(ggridges)
read_csv("../../ex3/data/raw_mwtms_data.csv") -> all_mw_data 
source("../../ex3/src/transformation.R") # AE calculation
```

``` r
all_mw_data |> 
  dplyr::select(-region.y) |>
  filter(stimulation == "sham") -> mw_data
da_pro(mw_data, nback = 25) -> trans_mw
```

    # A tibble: 3,509 × 14
       subj  session block proberound probe1 probe2 probe3      apen     bv stim 
       <chr> <chr>   <chr>      <dbl> <ord>  <ord>  <ord>      <dbl>  <dbl> <chr>
     1 AG001 S2      B0             1 4      4      2       0.458    0.0923 sham 
     2 AG001 S2      B0             2 4      4      2       0.444    0.0527 sham 
     3 AG001 S2      B0             3 3      2      3       0.120    0.0574 sham 
     4 AG001 S2      B0             4 3      3      4       0.535    0.0832 sham 
     5 AG001 S2      B0             5 2      4      2       0.151    0.0877 sham 
     6 AG001 S2      B0             6 2      2      4       0.117    0.180  sham 
     7 AG001 S2      B0             7 2      4      4       0.247    0.165  sham 
     8 AG001 S2      B0             8 2      4      2       0.295    0.0488 sham 
     9 AG001 S2      B0             9 2      4      3      -0.000945 0.0439 sham 
    10 AG001 S2      B0            10 3      4      2       0.189    0.178  sham 
    # ℹ 3,499 more rows
    # ℹ 4 more variables: logapen <dbl>, logbv <dbl>, zlogapen <dbl>, zlogbv <dbl>
…
